%YAML 1.1
%TAG !u! tag:unity3d.com,2011:
--- !u!1 &5077905614339558199
GameObject:
  m_ObjectHideFlags: 0
  m_CorrespondingSourceObject: {fileID: 0}
  m_PrefabInstance: {fileID: 0}
  m_PrefabAsset: {fileID: 0}
  serializedVersion: 6
  m_Component:
  - component: {fileID: 5077905614339558198}
  - component: {fileID: 5077905614339558197}
  m_Layer: 7
  m_Name: Right Hand Renderer
  m_TagString: Untagged
  m_Icon: {fileID: 0}
  m_NavMeshLayer: 0
  m_StaticEditorFlags: 0
  m_IsActive: 1
--- !u!4 &5077905614339558198
Transform:
  m_ObjectHideFlags: 0
  m_CorrespondingSourceObject: {fileID: 0}
  m_PrefabInstance: {fileID: 0}
  m_PrefabAsset: {fileID: 0}
  m_GameObject: {fileID: 5077905614339558199}
  m_LocalRotation: {x: 0, y: 0, z: 0, w: 1}
  m_LocalPosition: {x: 0, y: 0, z: 0}
  m_LocalScale: {x: 1, y: 1, z: 1}
  m_ConstrainProportionsScale: 0
  m_Children: []
  m_Father: {fileID: 0}
  m_RootOrder: 0
  m_LocalEulerAnglesHint: {x: 0, y: 0, z: 0}
--- !u!114 &5077905614339558197
MonoBehaviour:
  m_ObjectHideFlags: 0
  m_CorrespondingSourceObject: {fileID: 0}
  m_PrefabInstance: {fileID: 0}
  m_PrefabAsset: {fileID: 0}
  m_GameObject: {fileID: 5077905614339558199}
  m_Enabled: 1
  m_EditorHideFlags: 0
  m_Script: {fileID: 11500000, guid: 19ed812a298faf04b9284f7319a93c01, type: 3}
  m_Name: 
  m_EditorClassIdentifier: 
  showController: 0
  controllerCharacteristics: 576
  controllerPrefabs:
  - {fileID: 7634514334346526944, guid: 0540e32b498ef284f8e1dcf80dfccd58, type: 3}
  - {fileID: 4245457492171364763, guid: c836783e3928a624e9ff9c70d4f21606, type: 3}
  - {fileID: 4024951872544157354, guid: cfa8dc06d611ba340b06bbefba58ee46, type: 3}
  - {fileID: 7523567926693483842, guid: b2ec64201e9ec6c4ba155691307536cb, type: 3}
  - {fileID: 5191550869875014123, guid: 0efe8147fc0009d4ea3039b2374d927c, type: 3}
  - {fileID: 4818293155451206850, guid: 542a6345c56bbcd41b92f421fac57d92, type: 3}
  - {fileID: 357722411443781339, guid: aafefdd564a300c4d93806fdc271c41f, type: 3}
  - {fileID: 5928091942230486030, guid: c4b9c875ed967534eb12cd57aeeb1183, type: 3}
  - {fileID: 6654152787936889342, guid: 61e60013ce1d7d942b8975c98fdf8154, type: 3}
  handModelPrefab: {fileID: 5686134208185362930, guid: 1fd3a7c43c8190f4d8c167ebde694364,
    type: 3}
